<?xml version="1.0" encoding="UTF-8"?>
<!DOCTYPE svg PUBLIC "-//W3C//DTD SVG 1.1//EN" "http://www.w3.org/Graphics/SVG/1.1/DTD/svg11.dtd">
<svg version="1.1" xmlns="http://www.w3.org/2000/svg" xmlns:xlink="http://www.w3.org/1999/xlink" x="0" y="0" width="64" height="64" viewBox="0, 0, 64, 64">
  <g id="Layer_1">
    <g>
      <path d="M0.5,0.5 L64.5,0.5 L64.5,64.5 L0.5,64.5 L0.5,0.5 z" fill="#7307A5"/>
      <path d="M0.5,0.5 L64.5,0.5 L64.5,64.5 L0.5,64.5 L0.5,0.5 z" fill-opacity="0" stroke="#7307A5" stroke-width="1"/>
    </g>
    <text transform="matrix(1, 0, 0, 1, 32, 32)">
      <tspan x="-14.738" y="19" font-family="Helvetica-Bold" font-size="53" kerning="0" fill="#FFFFFF">8</tspan>
    </text>
    <text transform="matrix(1, 0, 0, 1, -124, -326)"/>
  </g>
</svg>
